202404-tsa-passenger-volume
…
The two dfs can be checked:

head(data_tables)

[[1]]
# A tibble: 365 × 2
   Date       Numbers
   <date>       <dbl>
 1 2019-01-01 2201765
 2 2019-01-02 2424225
 3 2019-01-03 2279384
 4 2019-01-04 2230078
 5 2019-01-05 2049460
 6 2019-01-06 2299648
 7 2019-01-07 2119879
 8 2019-01-08 1805496
 9 2019-01-09 1811152
10 2019-01-10 2029644
# ℹ 355 more rows

[[2]]
# A tibble: 366 × 2
   Date       Numbers
   <date>       <dbl>
 1 2020-01-01 2196916
 2 2020-01-02 2461726
 3 2020-01-03 2381987
 4 2020-01-04 2244162
 5 2020-01-05 2491894
 6 2020-01-06 2280882
 7 2020-01-07 1871059
 8 2020-01-08 1880834
 9 2020-01-09 2102860
10 2020-01-10 2142463
# ℹ 356 more rows

[[3]]
# A tibble: 365 × 2
   Date       Numbers
   <date>       <dbl>
 1 2021-01-01  849514
 2 2021-01-02 1246953
 3 2021-01-03 1381448
 4 2021-01-04 1130546
 5 2021-01-05  807837
 6 2021-01-06  705249
 7 2021-01-07  814928
 8 2021-01-08  816271
 9 2021-01-09  750419
10 2021-01-10  929661
# ℹ 355 more rows

[[4]]
# A tibble: 365 × 2
   Date       Numbers
   <date>       <dbl>
 1 2022-01-01 1616850
 2 2022-01-02 2026176
 3 2022-01-03 1921966
 4 2022-01-04 1673499
 5 2022-01-05 1501170
 6 2022-01-06 1543985
 7 2022-01-07 1518098
 8 2022-01-08 1450135
 9 2022-01-09 1706857
10 2022-01-10 1453110
# ℹ 355 more rows

[[5]]
# A tibble: 365 × 2
   Date       Numbers
   <date>       <dbl>
 1 2023-01-01 2046950
 2 2023-01-02 2368194
 3 2023-01-03 2212528
 4 2023-01-04 1985965
 5 2023-01-05 2031976
 6 2023-01-06 2043547
 7 2023-01-07 1917290
 8 2023-01-08 2226917
 9 2023-01-09 2009868
10 2023-01-10 1678250
# ℹ 355 more rows
…
